johns/simulation/qsim/johns.msim.vcd
$comment
	File created using the following command:
		vcd file johns.msim.vcd -direction
$end
$date
	Wed Oct 30 23:38:39 2024
$end
$version
	ModelSim Version 10.1d
$end
$timescale
	1ps
$end
$scope module johnscirc_vlg_vec_tst $end
$var reg 1 ! Clk $end
$var reg 1 " Clrn $end
$var wire 1 # leds [0] $end
$var wire 1 $ leds [1] $end
$var wire 1 % leds [2] $end
$var wire 1 & leds [3] $end
$var wire 1 ' leds [4] $end
$var wire 1 ( leds [5] $end
$var wire 1 ) leds [6] $end
$var wire 1 * Mag [3] $end
$var wire 1 + Mag [2] $end
$var wire 1 , Mag [1] $end
$var wire 1 - Mag [0] $end
$var wire 1 . Q [0] $end
$var wire 1 / Q [1] $end
$var wire 1 0 Q [2] $end
$var wire 1 1 sampler $end
$scope module i1 $end
$var wire 1 2 gnd $end
$var wire 1 3 vcc $end
$var wire 1 4 unknown $end
$var tri1 1 5 devclrn $end
$var tri1 1 6 devpor $end
$var tri1 1 7 devoe $end
$var wire 1 8 Clk~combout $end
$var wire 1 9 Clk~clk_delay_ctrl_clkout $end
$var wire 1 : Clk~clkctrl_outclk $end
$var wire 1 ; inst|Qreg[2]~feeder_combout $end
$var wire 1 < Clrn~combout $end
$var wire 1 = inst|Qreg[0]~0_combout $end
$var wire 1 > inst|Qreg[1]~feeder_combout $end
$var wire 1 ? inst1|Mux1~0_combout $end
$var wire 1 @ inst1|Mux2~0_combout $end
$var wire 1 A inst1|Mux3~0_combout $end
$var wire 1 B inst|Mux3~0_combout $end
$var wire 1 C inst1|Mux5~0_combout $end
$var wire 1 D inst1|Mux3~1_combout $end
$var wire 1 E inst|Mux0~0_combout $end
$var wire 1 F inst|Mux1~0_combout $end
$var wire 1 G inst|Mux2~0_combout $end
$var wire 1 H inst|Qreg [0] $end
$var wire 1 I inst|Qreg [1] $end
$var wire 1 J inst|Qreg [2] $end
$upscope $end
$upscope $end
$enddefinitions $end
#0
$dumpvars
0!
1"
0)
1(
0'
0&
1%
0$
0#
0-
1,
0+
0*
00
0/
0.
x1
02
13
x4
15
16
17
08
09
0:
0;
1<
1=
0>
0?
1@
0A
0B
1C
0D
0E
0F
1G
0J
0I
0H
$end
#40000
1!
18
01
19
1:
1H
1B
0@
1>
1.
1-
1'
0%
#60000
0!
08
11
09
0:
#80000
1!
18
01
19
1:
1I
0G
1E
0C
0B
1;
1/
0,
1*
0(
0-
0'
#100000
0!
08
11
09
0:
#120000
1!
18
01
19
1:
1J
1G
1F
0E
1D
1C
1B
1A
0=
10
1,
1+
0*
1)
1(
1-
1'
1&
#140000
0!
08
11
09
0:
#160000
1!
18
01
19
1:
0H
0G
0F
0C
0B
0A
0>
0.
0,
0+
0(
0-
0'
0&
#180000
0!
08
11
09
0:
#200000
1!
18
01
19
1:
0I
1G
1F
0D
1?
0;
0/
1,
1+
0)
1$
#220000
0!
08
11
09
0:
#240000
0"
0<
01
0J
0F
1C
1@
0?
1=
00
0+
1(
1%
0$
#260000
1!
1"
18
1<
11
19
1:
1H
1B
0@
1>
1.
1-
1'
0%
