decodModified/simulation/qsim/decodModified.msim.vcd
$comment
	File created using the following command:
		vcd file decodModified.msim.vcd -direction
$end
$date
	Wed Oct 30 23:41:48 2024
$end
$version
	ModelSim Version 10.1d
$end
$timescale
	1ps
$end
$scope module decodModified_vlg_vec_tst $end
$var reg 1 ! En $end
$var reg 2 " w [1:0] $end
$var reg 1 # w2 $end
$var wire 1 $ leds [0] $end
$var wire 1 % leds [1] $end
$var wire 1 & leds [2] $end
$var wire 1 ' leds [3] $end
$var wire 1 ( leds [4] $end
$var wire 1 ) leds [5] $end
$var wire 1 * leds [6] $end
$var wire 1 + leds [7] $end
$var wire 1 , sampler $end
$scope module i1 $end
$var wire 1 - gnd $end
$var wire 1 . vcc $end
$var wire 1 / unknown $end
$var tri1 1 0 devclrn $end
$var tri1 1 1 devpor $end
$var tri1 1 2 devoe $end
$var wire 1 3 En~combout $end
$var wire 1 4 w2~combout $end
$var wire 1 5 inst5|Mux0~0_combout $end
$var wire 1 6 inst5|Mux1~0_combout $end
$var wire 1 7 inst5|Mux2~0_combout $end
$var wire 1 8 inst5|Mux3~0_combout $end
$var wire 1 9 inst5|Mux4~0_combout $end
$var wire 1 : inst5|Mux5~0_combout $end
$var wire 1 ; inst5|Mux6~0_combout $end
$var wire 1 < inst5|Mux7~0_combout $end
$var wire 1 = w~combout [1] $end
$var wire 1 > w~combout [0] $end
$upscope $end
$upscope $end
$enddefinitions $end
#0
$dumpvars
1!
b0 "
0#
0+
0*
0)
0(
0'
0&
0%
1$
x,
0-
1.
x/
10
11
12
13
04
15
06
07
08
09
0:
0;
0<
0>
0=
$end
#80000
b1 "
1>
0,
16
05
1%
0$
#160000
b11 "
b10 "
0>
1=
1,
17
06
1&
0%
#360000
b11 "
1>
0,
18
07
1'
0&
#520000
1#
b1 "
b0 "
14
0>
0=
1,
19
08
1(
0'
#720000
b1 "
1>
0,
1:
09
1)
0(
#800000
b11 "
b10 "
0>
1=
1,
1;
0:
1*
0)
#880000
b11 "
1>
0,
1<
0;
1+
0*
